matmul/sol1/sim/wrapc_pc/run_xsim.log
--------------- SW_RESULT ---------------
974080 952096 961114 966845 937390 1105837 1045539 1047924 921085 1053674 973058 1053963 1025914 989045 1033895 984780 1009673 900652 1053868 1025163 990122 938900 894691 1002343 1035143 904471 1059210 943000 1112442 906076 984220 1060195 1039380 1181234 976902 1073327 995161 909427 1122878 1125781 992778 1007445 985127 1004110 1000571 917980 1102749 965416 937572 1001299 1044710 951040 878675 1007312 1002002 968632 996375 1007888 905258 915227 1104946 855790 1011413 981384 971563 979191 1113147 986338 920963 878371 1085900 1063098 907576 989493 933631 999445 790014 959445 925934 783189 1100545 1062378 963431 1139883 1066938 1107998 1030114 1141476 1021816 1204183 1085418 962338 890910 964380 1104530 948182 1020890 1153441 1118850 1067652 1073249 878449 1092845 1110099 1001052 1077808 1031847 1027552 930501 1101812 1020512 930416 948640 1022380 934565 1143787 1127607 1066813 1016224 1098667 1074563 992205 1199327 1085346 945731 872586 962501 1075942 
1064966 1069367 960279 999094 1007502 1191603 1025661 1180982 903810 1181194 980151 1098877 1016158 1102556 1020033 999294 1062699 1038754 1110133 896371 1097972 937690 1037315 957026 1097945 987468 1160626 1082566 1045823 920018 1080784 1063848 922254 1226801 984385 1091065 1048499 897464 1055194 1227990 1180162 1094766 996294 1072247 964342 965864 1197122 998676 1003118 1096300 1048021 994613 936877 1063082 1143292 1037279 996361 995403 913288 1029829 1180090 886265 1016255 1026441 1053214 975535 1130351 1092553 1058513 887574 1135456 1091619 1016650 1031389 1095908 1089839 858617 940819 908952 905659 1175168 1074420 1081902 1096333 1164560 968447 1057138 1069762 973127 1126743 1087780 1019635 1002313 881425 1070017 820905 1008365 1122720 1068613 986202 1028415 973517 1038388 1114972 1013153 1233105 975488 1114949 966929 1104985 966997 1025437 928152 1051152 933316 1110447 1180750 1043257 1108330 1131090 1091189 1007065 1253186 1132185 1030951 986356 929096 1118878 
1082459 1196142 1152999 1044037 1080429 1237171 1146801 1225088 1073854 1245179 1077082 1159978 1149505 1161399 1208156 1092542 1083848 1095013 1338134 1046835 1133090 1010218 1128908 1039262 1143356 1154495 1192488 1034926 1164980 977352 1152243 1269811 1092418 1320191 1101350 1216550 1104192 1037564 1173890 1234953 1206110 1113528 1031533 1163971 1089103 1042979 1251428 1136954 1091537 1158254 1107631 1093469 1007871 1170744 1236357 1065569 1070856 1113376 957728 1112238 1195418 1016368 1072756 1088009 1100636 1143761 1246492 1215976 1030192 970736 1235771 1205932 1012988 1180663 1159963 1105086 836600 1098058 1051322 894096 1210252 1144558 1099533 1253496 1142395 1150432 1198974 1224889 1177608 1316331 1186074 1117978 1032783 980414 1170218 1019620 1099815 1228475 1193318 1162857 1236686 1048244 1139763 1119487 1079662 1248796 1009264 1165487 1053788 1198071 1020171 1073900 1087108 1116769 974266 1274796 1226445 1184580 1145793 1176632 1203491 1110671 1312059 1255925 1077516 971578 1083847 1206409 
1055855 1059216 1032145 954985 984924 1172799 1044432 1014564 984750 1049283 1004016 1056004 1102367 984895 971087 1005988 1054373 1001626 1173393 937274 1026352 949391 1006509 981778 1030921 947051 1057568 977663 1071392 895350 1059998 1259397 912597 1160201 966044 1193533 1027956 875279 1049178 1193765 1053771 1116151 1042075 1021249 950989 918515 1105995 1118122 927141 961984 1007845 1003673 898685 1057266 1014496 890354 946340 907454 833212 979478 1139957 881192 980385 966735 997250 1013794 1122500 1012021 939693 948255 1085286 1103567 972143 1013186 923118 979009 762165 922107 943596 765726 1181390 1059836 996745 1071410 1100961 996644 1109330 1064736 1121401 1184526 1088948 980698 945184 979303 1177071 931436 993998 1138672 1130523 1139773 1118930 1007758 1069396 1047600 986191 1168125 1134665 1038039 918649 1099278 993357 947797 954761 1014722 871166 1141520 1191192 1034578 1051903 1119866 1133351 1020030 1195709 1154135 927427 922303 1018730 1110705 
941122 862815 923577 810418 932841 1075335 997449 928860 900624 995527 919818 991438 922520 914172 941166 963666 914136 982343 923686 841056 877374 867124 896579 899044 965219 788806 968707 871365 976997 845958 981703 944042 868551 1000547 918659 980333 936366 744512 910537 1046844 941693 953791 944417 906089 839106 808687 999419 997266 814054 862107 912954 908043 862162 954540 892747 903026 934652 899496 720485 921169 1031594 786623 796492 877983 888686 852347 1043338 924584 903435 831828 937599 1021063 891831 910243 884464 938401 745834 817091 845145 848585 997560 895011 900970 977582 1001858 921314 875184 1004418 867742 999946 967324 974042 862147 897954 947412 808635 903270 1084939 1083400 990442 995194 858653 1021391 1015585 903002 1066306 951512 907177 887204 990557 873426 921667 920141 942787 786573 1043777 1025421 886796 913039 1035762 1005448 852524 1100552 1046586 887632 826126 850701 959225 
1082918 1080555 1007412 1009771 1004827 1167611 1149597 1144829 984576 1169667 1033815 1077366 1112578 1062466 1163711 1038889 1148761 1087454 1173369 1039607 1135665 1002039 1104207 1043974 1039594 1030504 1176152 1030768 1085093 1020176 1149620 1153610 1078094 1270259 986620 1122934 1115356 895327 1098483 1193650 1139651 1136075 1086553 1111527 1029682 956531 1178170 1087868 1052873 1041622 1079176 1014347 1014055 1078084 1096040 1053177 1078927 981086 925960 1098964 1202912 922284 1098807 1072819 1084133 1091011 1221539 1186327 1007203 935980 1218137 1122950 982318 1057522 1073796 1067965 877007 1031326 1069515 881767 1202788 1156379 1101034 1092771 1110662 1162471 1063314 1174468 1135079 1208038 1206483 1017019 1012579 1073150 1176052 1055033 1041651 1259060 1198512 1075934 1166547 1032056 1204411 1122026 1110012 1187322 1086866 1127007 1052490 1169992 1065508 1063657 1068090 1132286 929944 1251777 1177102 1112310 1029545 1165774 1103717 1015251 1286292 1276069 1085088 1036116 1063163 1175399 
827674 869703 883282 833000 857452 969099 965894 945104 798520 1027964 863127 1006149 938502 867680 892749 894160 865916 977790 1013608 903386 940449 886514 827852 861136 942299 844800 1017636 851872 961454 824556 932579 896250 945725 1071627 846244 983384 985120 848140 1025002 991939 934229 938391 848565 996265 854014 883584 971646 900983 809477 932918 905204 870935 782472 1027384 941191 805291 869722 878945 830679 852549 1041667 838760 978107 911830 803823 793526 1014224 906655 779900 810069 956653 939363 794818 908337 910764 858634 721379 808790 822865 771833 984254 938593 876434 975985 896085 912059 872951 970214 916202 1024529 953060 909029 821603 893907 975163 813823 881382 992801 987441 963319 964229 849555 896338 976159 886687 1002772 867205 898492 844364 956377 808296 840424 822737 884181 821652 956828 1002771 967550 907173 955687 938351 944738 1025553 1021432 932086 872970 845642 991154 
1043114 1127944 1124778 1050081 976504 1246609 1232207 1232832 1027040 1220143 1058034 1172266 1096633 1094945 1169365 1081982 1142522 1068906 1182894 1009796 1194437 1023811 1120316 1112277 1142080 1022475 1155273 995223 1219306 1016082 1190929 1176018 1118656 1339353 1098594 1212380 1132814 989394 1121715 1270555 1178231 1159619 1050997 1161249 1100438 1045198 1180537 1088822 1073557 1097826 1083512 1181719 1032122 1237814 1162478 1068214 1124072 1003570 920384 1096692 1208179 934582 1044616 1062338 1107598 1133747 1249878 1147721 1070758 943215 1246216 1168083 1158425 1123316 1086610 1140342 933499 1092786 1034329 894044 1262382 1117435 1162571 1198661 1208514 1169034 1072335 1152469 1096773 1229098 1188732 1075802 1009044 1045603 1189299 1029001 1096508 1191986 1174509 1089147 1206502 1030227 1196092 1179144 1079903 1274555 1139539 1151175 1006692 1177640 1053194 1037510 973005 1138983 981610 1345195 1271871 1152145 1082255 1143210 1184148 1044431 1311566 1243045 1097430 1040701 1029554 1177742 
986302 975429 959209 898378 969454 1051658 1036705 1025362 884975 1006523 956731 1083146 1038059 996024 950997 924372 906302 967750 1091344 957944 1003451 1015613 926622 850092 1020627 827223 1009425 913189 1021382 854820 996492 1028929 913991 1114888 998148 1098273 912141 850143 994005 1124094 1035032 953265 932498 985866 925372 888868 984447 1024718 894575 989533 1028944 925071 918859 1051895 1020738 882991 927680 942166 800084 977070 1075297 813361 929386 983491 902909 973307 1110217 1077010 884616 862732 995280 973232 984316 1035172 1011428 977901 668360 859492 901564 854130 1028323 987218 956329 1096351 1031675 974835 952615 1143162 876747 1146803 1028999 1000695 848587 828530 1099548 837708 949777 1108938 1070064 978929 1003690 970435 938799 965230 929078 1147003 934902 929434 990955 1041109 924651 871564 938440 954356 845767 1102719 1091469 1039904 1076306 1081174 1007348 926996 1220018 1065167 867354 804393 924071 1066068 
1160435 1055549 1111581 1150443 1096207 1290259 1275771 1249492 1048182 1273322 1099371 1193530 1159842 1137221 1199612 1060483 1106153 1216260 1195127 1085302 1178235 1133374 1063137 1100696 1208455 1018376 1213664 1135728 1229642 1181430 1258206 1245947 1105338 1330759 1080564 1209102 1208707 1064960 1233778 1293178 1188332 1131516 1116008 1168384 1063057 1026397 1226971 1241367 1077390 1081059 1138277 1151417 1013545 1240650 1182604 1070066 1206055 1036207 926069 1224417 1259388 937767 1145936 1126486 1148168 1098963 1301031 1197176 1068626 1045667 1281039 1174358 1136347 1208132 1114097 1158870 944425 1069679 1137692 1026523 1328462 1220542 1137500 1260671 1212825 1186839 1143860 1225921 1140591 1314086 1214526 1153624 1103838 1051482 1240648 1059605 1131963 1390028 1293708 1147179 1238410 1098638 1173904 1195981 1179202 1312639 1176275 1122048 1074887 1244620 1088390 1104642 1018267 1149275 1017380 1294863 1300418 1202010 1154114 1318503 1265262 1187920 1322549 1339072 1103492 1022627 1083569 1218806 
1010694 1008875 1009522 943688 923381 1135629 1057890 995122 958572 1086129 1027729 1087448 1015453 1007682 1008694 959255 979582 966953 1124285 963172 1001348 976261 919249 869253 1018877 885284 1022184 897720 1060707 919086 984611 1101371 942996 1171632 1002362 1126131 994728 886126 1041598 1131153 1039853 1058812 911945 1075355 1012399 839455 1079084 1012540 896800 1010864 1021442 988637 849347 1034374 988700 912677 1022858 951968 820635 1027809 1059856 869596 970909 995079 1043496 961407 1144105 1028151 884030 896899 1025454 1048925 895918 1012831 998727 1010291 758292 947592 995326 858958 1147467 981555 976919 1013962 978126 1073573 980665 1122256 1065589 1119479 1033526 964272 951595 920209 1061429 908163 1040242 1083923 1111315 1065373 1119895 923397 1115514 1001215 1018559 1155046 1037934 1030003 935494 1097741 884985 871681 951576 1046126 948778 1090363 1095553 1012817 1062901 1136010 1158496 1066928 1119781 1151276 935565 966591 956101 1111052 
1093658 1072534 1209268 1061468 1180748 1329735 1242060 1234723 1076876 1298519 1126229 1273455 1156545 1177641 1146943 1138613 1189920 1152109 1234453 1099506 1173473 1174544 1110735 1104028 1204692 1023734 1277120 1039663 1259263 1113144 1234738 1251781 1115289 1326913 1100514 1318177 1174969 1026985 1168422 1365839 1164781 1196162 1149830 1144940 1163854 1064073 1223766 1242460 1030096 1172401 1147374 1074394 996531 1236954 1103819 1083066 1111348 1156613 994744 1166026 1232902 1025698 1102904 1060236 1132003 1110979 1323730 1228535 1082528 1125675 1273633 1320236 1131673 1105189 1157975 1245347 952437 1148613 1065682 1042159 1305431 1148606 1276227 1240175 1291893 1170786 1231089 1264344 1166571 1295044 1200981 1123750 1105498 1051274 1260256 1088436 1087468 1302645 1309352 1177219 1259540 1033070 1269760 1303818 1123168 1354650 1231887 1170545 1106597 1195466 1168944 1106056 1051354 1149696 1027827 1345435 1295499 1263897 1222282 1376831 1269947 1074064 1412155 1329782 1120726 1195673 1117691 1229773 
1165981 1173722 1157808 1094224 1138286 1407692 1204895 1287067 1075149 1202314 1082395 1152705 1135505 1164839 1207689 1186494 1141574 1117274 1263195 1048695 1212670 1022499 1099283 1141586 1273453 1034080 1259987 1146946 1203455 1038964 1198829 1251797 1067537 1366320 1171268 1303408 1103174 1001855 1177653 1296263 1242231 1163832 1152528 1181135 1139360 1129251 1271340 1096110 1030272 1184840 1178141 1150036 968908 1228354 1218373 1125706 1130354 1097247 919148 1079630 1297214 989477 1145481 1099750 1117096 1085522 1304614 1213941 1242557 1005655 1261013 1187416 1092505 1178485 1236016 1112752 923297 1111153 1088381 1047088 1371749 1206681 1106145 1213514 1261814 1168708 1181367 1187812 1063298 1299843 1245444 1168191 1122848 1028971 1164467 971699 1118413 1203899 1211635 1158688 1256905 1061272 1217897 1164425 1099241 1321939 1121147 1152564 1151776 1202185 1054873 1099394 1027348 1131344 988221 1331997 1264402 1208844 1225606 1269327 1196949 1160720 1378625 1270823 1145175 979996 1154689 1216013 
1032370 989058 967101 934010 1007551 1084470 1096163 1052318 904420 1159571 960306 1034408 987163 1000639 1040828 1023169 927842 1215988 987047 946252 954336 957757 1014189 991562 1061634 925993 1070275 896181 1122696 1004760 1053050 1057159 976536 1149481 893606 1094372 1032636 927867 1045111 1162848 1038507 1018633 982150 1019573 906892 897554 1091748 1111027 918366 947038 1110888 1001761 852803 1071208 1044849 963611 1007345 1055348 888997 1035731 1190621 889929 1032780 984273 949801 973173 1123864 983990 894503 951288 1064731 1146771 858404 1017988 939984 1005622 772094 1009125 1008100 867428 1086378 1021812 976821 1075891 1044840 1060987 1038852 1094517 1039809 1170635 1068990 986174 927035 970709 1053007 952959 974291 1200215 1151594 1096246 1126353 931277 1029557 1085973 997439 1105109 1018753 992034 905368 1085022 910921 981416 941419 1007631 884739 1109632 1219562 1037078 1001411 1091955 1096909 979592 1217504 1180223 933516 866398 1005893 1130111 
1084034 969358 1026025 1009455 992827 1142877 1055443 1070984 929991 1093471 1005921 1117437 1039443 1138500 957159 943192 1023730 984247 1029492 954872 1091337 1094782 980970 879813 1060116 895298 1042017 872122 958610 956860 1011145 1066426 998740 1159138 926931 1044360 933025 909776 1061805 1149151 996001 1059151 966331 1020871 1019393 910682 1062582 1051514 931621 943990 1026683 970164 908152 1084833 993027 940651 1038412 933436 791637 1068566 1055453 845374 874661 1024968 1075304 976215 1166368 977599 972337 851741 1114378 1064025 949359 1047468 972879 1088691 825999 986874 1030672 922218 1108527 1069181 1080670 1170469 1119872 1058749 902816 1175284 972847 1168405 1021938 991836 992031 953041 1129163 907609 1001735 1135340 1084512 1006000 985050 927897 1065635 1068947 918699 1139213 1115904 1107366 951690 1058390 897788 930030 939587 1073028 944045 1160096 1134477 1058497 1007450 1103646 1058486 985451 1178275 1106771 998249 920443 872994 1033377 
993595 995897 1009937 830321 885125 1117410 989786 910003 835852 1011060 962221 1031817 1020062 1023460 884857 980443 967170 985104 967261 949669 953803 965616 909897 946834 1040601 970928 1075768 961268 959037 950926 976935 1036420 989907 1099858 940870 1033822 951473 787822 1031404 1168415 1088408 978724 965620 986576 911197 969485 1004915 868922 948838 963989 999143 948354 848726 1089713 958037 861084 923453 914979 876607 960441 1003523 836459 980089 1024309 979696 887073 1168606 973720 943661 871622 1049081 1052485 888065 1009408 950972 905191 776146 779122 963221 870682 1104482 989858 962283 1113900 1023179 976545 955266 1083165 993211 1203186 1051595 951779 926637 905885 1060729 850120 1011744 1109132 1055621 1031736 989295 939830 990457 1001582 911861 1075570 1042340 921371 969170 1011807 864716 910931 874907 980115 866890 1005800 1125385 945472 979634 1091367 1077869 1066290 1103269 1153605 974779 917805 924473 1038416 
935210 878209 851805 878726 827607 1144323 1031440 1023591 883248 1057510 922227 1005486 924019 940887 942958 857215 930434 915690 946033 889058 1013071 834465 873811 925152 1024337 867693 991097 870940 973036 929924 1031967 926439 911469 1023106 955854 1043554 976988 868937 983171 1137838 979925 1067930 870723 937116 947304 912351 1080214 916638 915626 914420 969692 926369 818060 1056308 921422 891890 921596 868169 869715 1008515 1070613 873440 907756 913220 927179 837123 1056353 923986 933601 880993 1047190 1049577 879495 960439 936459 918209 760445 872266 899839 810425 1125515 931676 964908 1051350 1054603 880942 954383 1022094 916910 1117221 939359 963708 989149 928212 959324 793182 936560 1041869 999197 944360 951978 863811 1055521 1051547 940160 1117152 976871 1024188 850315 1048260 887756 896966 903501 980870 902671 1045106 1005049 922390 920710 1083909 1035229 922716 1108979 980832 997269 923495 832733 1097328 
1019533 919312 952803 960854 983882 1150609 1035175 989352 910698 1060172 995210 1032019 1064027 956270 977049 960958 1037059 911774 1104783 898107 995574 904417 903006 927497 1064047 871660 1031264 939926 1090622 818156 996372 1066557 954454 1165203 1042635 1029610 936457 873064 1040680 1081624 1052632 1019422 940237 1048479 904177 875237 1092094 1069576 924294 935871 980012 989917 913055 979063 979133 924453 929141 919024 808753 918883 1045383 729834 933171 875235 999605 948158 1103485 1034522 924327 921382 1067698 1027553 983016 989104 993600 1056459 813762 877898 861416 820274 1168477 974715 932515 988670 1119512 1037714 867251 1068247 1019468 1117313 1051147 1014925 950119 854102 1101812 837155 1000937 1143822 1076282 1015946 1015187 905397 1152229 1055907 993160 1144676 1034953 926400 890524 1089982 977111 908331 945182 1056770 921389 1070935 1136134 977411 1019081 1111902 1108950 1007988 1146517 1066235 912841 852492 919469 1062902 
1147384 1156957 1213068 1115801 1165095 1351558 1256216 1333359 1101204 1317087 1155766 1337576 1165289 1191768 1178086 1270579 1205321 1217253 1228950 1095769 1173925 1178557 1143798 1150631 1239943 1151493 1273462 1110797 1298166 1142782 1243346 1286379 1220217 1391964 1175059 1256715 1213494 1135417 1246276 1404533 1271190 1247104 1209736 1242232 1199596 1095970 1337806 1254597 1099841 1289008 1199260 1188127 990660 1256680 1250873 1107090 1201425 1186743 1007770 1126018 1365929 1033417 1073244 1178412 1217363 1215186 1327904 1175587 1154333 1110393 1287392 1326139 1118373 1218627 1292411 1207407 938027 1193747 1123216 1029077 1323000 1150802 1184443 1322175 1303466 1205992 1148957 1315286 1161922 1450163 1310746 1193220 1155016 1184446 1299738 1079193 1145642 1286617 1370814 1249807 1330512 1137089 1294644 1270716 1084738 1324833 1256774 1149838 1117621 1285225 1106859 1046783 1125131 1162394 1109243 1353136 1395018 1270711 1278408 1330745 1240237 1189627 1382251 1383219 1141338 1073656 1183425 1238759 
1006209 948844 983546 993053 923871 1190068 1049208 1050047 926762 1074701 973158 1129766 947875 938078 985302 1021251 993437 994325 937047 958863 1058859 936946 1009507 977959 988531 952486 1059858 914640 1126523 999844 1085273 1056825 1004190 1164601 927703 1057643 1006227 883202 1132062 1152353 1045507 1020671 978801 992756 944293 960536 1065673 1005577 868055 947327 1046347 932930 851432 1061526 1012219 898379 996570 969803 846169 1026793 1097185 802699 1022356 1037460 968168 965279 1121788 997976 996171 856584 1036284 1032175 933363 1002342 971095 969686 733429 912682 972778 887262 1161598 1058838 975634 1140024 1038776 1145457 893922 1120275 1000442 1246312 1161692 1023931 976821 968116 1112900 928574 1045520 1095838 1073095 1003809 1056779 956417 1081763 1054100 995308 1146432 1040035 1043921 932070 1104242 928527 979939 924364 998772 974456 1132444 1135792 982614 1038484 1125997 1113545 1008855 1114449 1174037 964230 923068 1017914 1088557 
1105798 1081689 990885 904125 939989 1138318 1128547 1008548 907636 1008009 1034585 1041886 984898 1026794 889891 958439 977707 1011076 1088715 952480 1087652 916611 1042340 988386 1063092 1005721 1052491 908901 1047952 914700 1126251 1067181 1020750 1132685 1002394 1129052 972258 864148 1032835 1140501 1055831 1016459 909926 966140 928628 949408 1065641 1054648 944033 880468 1089632 1071693 941540 1044368 1077877 1009882 949491 890663 876203 1061859 1103993 841223 986448 953318 983115 923277 1067049 969696 938797 891013 998528 1069244 985005 1055525 1012375 998897 714232 916990 938271 831631 1144393 958609 946882 1064545 1035236 1042462 962575 1117820 1094871 1198935 1065715 1070859 912735 935805 1063821 875356 1051965 1065778 1086080 1019724 990273 941309 1007104 968433 950751 1131204 1038138 1053021 874483 1122362 884020 963716 958643 1022081 935715 1108732 1056230 970053 979773 997678 1083429 1086366 1108088 1095625 948353 835718 880501 1045501 
913319 889815 853015 916408 899239 1079296 1040231 1090407 925213 1064043 965406 1041707 941066 963008 967299 910591 956590 917774 982361 879532 1057053 901639 931554 940855 995154 872550 1017554 953464 1067620 918932 1002445 957856 981206 1138505 926179 1024261 1009870 911166 1057922 1151802 980548 982022 956271 964121 916992 913631 1090998 973583 916453 968270 1055395 886408 895335 985040 986396 972931 987965 963790 858474 889962 1110278 855843 911543 972067 934133 941184 1165094 1032492 994965 841079 1087909 1047724 901497 946360 970505 973911 809842 946409 882412 815836 1187381 904818 930198 1066252 1082609 971596 1002113 1016310 904650 1144602 1027343 1025624 935163 956978 1018366 840762 977405 1132749 1088811 979747 956581 878671 1063152 1063487 894842 1187501 995526 957354 895078 1108949 992454 944245 873255 1092608 798466 1074426 1055366 1040496 908460 1013054 1045338 897359 1187066 1035235 928035 844153 899833 1014915 
1091680 1060330 1013441 1041915 1037411 1242952 1260027 1214445 1085547 1138504 1081851 1157353 1106270 1065268 1161455 1086470 1151492 1099369 1123605 996741 1098466 1030375 1066570 1078030 1122780 930561 1090866 1051565 1205742 1043774 1176369 1142750 1128851 1240966 1043809 1237684 1148056 983095 1126068 1266889 1175570 1208929 1031333 1030431 1038022 933292 1154029 1119881 944346 1164481 1163498 1105112 960934 1120124 1177164 1011922 1136465 1029598 1034355 1085755 1268542 949366 1116587 1034242 1091843 1035267 1205869 1107496 1094206 1033032 1141906 1130317 1053672 1047931 1125814 1097897 841513 1066154 1046789 912356 1293837 1161290 1106827 1144297 1171476 1178495 1118850 1200940 1105127 1256127 1227433 1098693 1043008 1097246 1211784 1045256 1071544 1332165 1280466 1054948 1198180 1035121 1194750 1212823 1094996 1233943 1129618 1144631 1037869 1209028 1111905 1073398 1072938 1048526 1111195 1244725 1291092 1188181 1135184 1332685 1200061 1154239 1252689 1250554 970597 1007278 1099147 1183072 
900039 940127 914706 907864 954948 1063130 951463 1043370 776837 1095753 879967 1026595 993851 984976 970505 997995 972318 1014925 1100169 885867 932433 1019926 936374 803632 1050838 860054 1017971 875189 999198 846896 927635 1084237 852919 1115445 907811 1077614 949538 884763 1001208 1105824 1084192 946938 895421 980481 870649 811183 1028471 1087354 861819 970419 1039895 924507 933763 979541 1041802 906849 898990 915882 799205 991999 1067814 803967 941435 953342 894360 967405 1068629 1046611 880924 917690 1045171 990018 929411 980604 993561 1018591 645928 880794 933246 848804 1029793 1062199 907048 1074016 1074659 937761 942299 1036228 900805 1069453 1003710 964803 867185 881646 1016006 838423 958794 1087421 1070205 1064870 1010786 965287 965849 955651 978892 1067386 964359 919737 887379 1026934 847577 911712 931560 947915 898776 1038256 1225200 1005928 1061697 1083569 1048813 1008751 1137892 1146655 871582 906605 924935 1130585 
993774 957370 999177 912333 1030132 1082445 1009693 1141542 916529 1114712 910375 1041821 994019 1050433 1009843 1011172 1014094 997675 1077099 962669 1054692 1017290 1007338 977650 1048107 973347 1163932 939828 1033275 928502 1034990 1079718 965525 1239384 990768 1113758 1039277 996062 1113961 1112881 1033163 1016636 964899 1012386 1039998 960263 1194543 1085735 940643 1000665 1027494 978998 948717 1014737 1004492 989047 1037201 1024921 772152 1012259 1177836 898904 966407 982482 990248 1016439 1150446 1068522 990243 880918 1090806 1066145 908558 1112196 1020982 1023307 793381 1006408 932126 870712 1139278 1018907 987620 1118562 1071658 1050553 997910 1113035 1012384 1203358 1005892 1078159 880863 955844 999840 882677 1010779 1086756 1108256 1073130 1051411 917266 1126244 1058463 987330 1198724 1045199 1035783 981563 1001221 976255 927742 935150 1070838 828167 1198315 1083899 1101316 953275 1003919 1051323 1029458 1182260 1181143 1076101 906028 965826 1102634 
1065874 1054459 1101190 986933 1005577 1228809 1133291 1116608 990200 1202940 1016559 1142146 1120065 1081051 1058924 1018822 977888 1116164 1130816 1021005 1082644 963262 986314 985958 1138142 972703 1225350 981115 1090192 976884 1158773 1146109 1024908 1223686 1094149 1157676 1159097 1037782 1120498 1250831 1130984 1100384 1012047 1133134 1037036 1041676 1205134 1100160 977505 1022583 1058407 1054100 994955 1210768 1076558 1047868 1054959 977910 855149 1114137 1230336 943821 1038531 1063157 980708 1021031 1184880 1035152 997587 913781 1140311 1099808 1036252 1182220 1023116 1010020 803880 982204 1028307 899226 1187692 1098277 1024485 1136500 1174906 1049098 1126440 1155433 1100711 1214191 1115197 1099416 945215 903128 1104700 879962 1014464 1205055 1143616 1118918 1138496 991467 1062261 1118371 1060268 1237483 1067763 1158035 985403 1083727 957793 1068591 1006200 1079966 962023 1235881 1233771 1171439 1062116 1135737 1135675 1088833 1298528 1151367 1062264 1015622 920733 1206330 
1023561 933460 920851 882038 931064 1122353 940054 1035492 877914 1006639 958547 1008964 959117 1032477 931027 900313 893726 960768 1018324 858849 947497 905437 920183 827931 987074 912045 1059259 897253 998884 890446 1007702 1035734 842153 1054112 941610 1063755 954379 869650 967942 1089163 1039700 1003591 842742 875962 907072 871938 1048822 1083534 829180 945112 992065 871442 854500 995579 981159 929895 919187 910981 756829 1057047 1110475 882824 913825 892183 925114 899600 1055208 1019243 925821 873042 972865 1029656 901246 956139 1003295 980155 780292 925330 841052 875813 1089135 960057 1031670 998068 1038466 887836 956525 1113150 906997 1017711 965264 963490 901289 832011 1016437 774896 942915 1043052 1017080 970165 946290 891550 987973 1007977 909151 1124391 920839 988135 899230 986081 889453 911630 898537 994866 845227 1018920 1046373 950861 954744 1074457 1030002 943382 1139770 1028431 908590 835810 832568 1039790 
1054224 1102565 1126965 1027577 1013342 1230576 1173930 1258872 1060964 1243722 1156167 1192388 1101599 1119000 1112662 1057833 1083212 1138951 1145453 1017766 1209835 982923 1055841 1102419 1184274 1075450 1288640 976233 1261182 1020208 1111028 1169917 1158126 1330709 1030822 1183383 1161327 1046482 1164741 1298726 1118913 1198942 970613 1154817 1110795 1057396 1274261 1143836 967230 1086333 1084378 1047523 957444 1170935 1226834 1048978 1074116 1075025 933825 1155002 1179510 964912 1065535 1076187 1099082 1050988 1263066 1115429 976480 1000450 1202651 1188226 1072245 1095452 1161471 1070349 849398 1113473 1040781 890188 1233267 1147843 1139807 1151061 1155105 1176500 1084440 1169406 1195648 1302143 1168358 1061044 1102613 1063372 1223296 980704 963110 1225373 1247803 1140108 1216047 1005836 1253677 1198435 1012630 1269775 1161990 1128394 1008687 1214848 1077831 1124947 1050349 1151894 1048111 1299196 1224785 1243594 1170507 1262996 1162219 1138629 1278722 1183965 1010687 1108780 1055618 1191216 
1033548 970179 968124 1017978 958383 1234122 1110030 1157445 1006492 1084932 1056991 1076548 1077332 1073873 1090096 1010285 999556 988388 1031495 950869 1073055 924042 940692 1011375 1140695 960420 1090984 957302 1055074 996742 1062292 1044851 1089885 1284313 1047596 1118276 1077681 940488 1149234 1156136 1112292 1112313 946551 988321 1047375 976478 1172021 970103 947498 1069156 1076438 932037 877444 1062922 1072947 1025464 1033665 1022782 908751 1022578 1163534 939291 1090116 998318 1031603 990782 1151564 998080 1048652 897051 1109537 1061971 931160 1008370 1078773 1044012 840090 1040622 952010 899636 1179702 1103922 1065247 1133483 1095729 1092830 990674 1190513 983679 1149211 1109494 995755 1036077 1087657 1142201 957337 1017801 1159928 1144943 1108608 1100909 935238 1182041 1114766 956115 1169122 1048329 1070927 988359 1159714 1014988 982470 962098 1101712 974889 1180371 1116565 1133027 1016211 1135275 1077731 1068359 1202422 1169722 1007011 935131 941378 1100493 
920827 1013929 1018592 966648 1025398 1135301 1125718 1112868 977105 1178198 1040060 1141068 1039478 997643 1038812 983259 1029131 1026178 1126657 969089 1080384 966168 998396 987533 1026177 909662 1081076 877844 1160281 949420 1051460 1080306 1090057 1192149 948575 1105010 1033114 934522 1040756 1164823 1022066 1065177 1017176 1035509 947934 948591 1041754 1093044 925792 1027733 931697 1004745 883935 1070235 1064528 954454 957960 907417 919233 1045175 1034458 829588 989966 972682 954362 938156 1135735 1073005 902604 933983 1111201 1000459 983581 1059962 1022935 1052901 715961 943329 965881 846840 1086620 1115340 1036172 1109592 1094737 1088186 1001314 1109906 1054118 1196835 1127932 987678 1013344 1011538 1125180 955022 931348 1157757 1104552 1027185 1127495 956515 1090931 1041997 1020550 1127992 1038640 1037752 976795 1071775 1007101 1001451 1007781 995532 957025 1192326 1221754 1121943 1087180 1200716 1100891 1027888 1168047 1158828 942788 1036815 999059 1102695 
1094244 1066093 1082398 1056849 1120373 1207359 1153801 1214402 1078623 1263369 1045583 1204586 1164769 1043927 1109060 1022777 1103345 1090194 1184226 973884 1175203 1094195 1061102 1073414 1141612 1001081 1221864 1024640 1166514 1066510 1205078 1232407 1105978 1314870 1048932 1199698 1135727 1080001 1111636 1304468 1175490 1177223 1147677 1137997 1118908 1018825 1168529 1136054 1013576 1090954 1082382 1032636 886679 1172989 1131137 1003234 1062632 1013624 933459 1137428 1212851 989928 1051686 1041251 1107610 1069187 1274868 1124678 1019905 1032257 1235728 1140973 1023695 1139898 1105516 1138674 776642 1044246 938137 922720 1331756 1139136 1143165 1206737 1202435 1109739 1151182 1196752 1059909 1274205 1160480 1085168 1084713 1025187 1196263 989118 1005571 1253827 1242713 1147968 1221129 1039385 1154714 1200254 1073155 1234027 1148106 1119713 1062515 1214515 1128053 993524 1114999 1053829 975310 1303425 1151146 1287855 1085385 1262914 1098611 1037364 1300569 1263120 1078756 1098690 1053976 1215983 
1067343 995570 1023226 1017220 990025 1186287 1150347 1197760 911905 1063565 1043133 1105487 1147790 1072641 1088496 1013619 1076690 984790 1117646 913765 1039482 1068111 1016310 978654 1104260 1036803 1122415 975373 1035080 956098 1125298 1109660 1042314 1214533 987735 1100019 1001403 899629 1096668 1189760 1085394 1018527 1006959 1137810 1017652 995848 1131077 1115187 1027711 975628 1044758 968223 889307 1167785 995642 934793 1044068 1034731 875896 998236 1143946 917465 997602 1014976 1154235 1095053 1153065 1130903 1040644 871803 1189973 1188484 987986 1104511 1138303 1062661 939685 1110633 1019399 858322 1116156 1061599 1006714 1146036 1202977 1092271 987742 1158689 1048627 1243850 1244854 980677 982558 1038993 1148017 947162 992920 1110119 1157688 1014437 1079831 980773 1207777 1075519 930593 1129217 1149127 1028489 992565 1121681 975260 1025244 950812 1087548 883142 1179356 1279147 1058198 1069963 1194930 1186559 951512 1283908 1174365 989749 937559 1045880 1094178 
--------------- HW_RESULT ---------------
