matmul/sol1/sim/report/verilog/mult_hw.log
INFO: [COSIM-47] Using XSIM for RTL simulation.
INFO: [COSIM-14] Instrumenting C test bench ...
   Build using "C:/Xilinx/Vitis_HLS/2022.2/tps/win64/msys64/mingw64/bin/g++"
   Compiling tb_matmul.cpp_pre.cpp.tb.cpp
   Compiling apatb_mult_hw.cpp
   Compiling matmul.cpp_pre.cpp.tb.cpp
   Compiling apatb_mult_hw_ir.ll
   Generating cosim.tv.exe
INFO: [COSIM-302] Starting C TB testing ... 
INFO: [COSIM-333] Generating C post check test bench ...
INFO: [COSIM-12] Generating RTL test bench ...
INFO: [COSIM-1] *** C/RTL co-simulation file generation completed. ***
INFO: [COSIM-323] Starting verilog simulation. 
INFO: [COSIM-15] Starting XSIM ...
INFO: [COSIM-316] Starting C post checking ...
--------------- SW_RESULT ---------------
988243 978045 1027831 889292 907678 977648 1071456 985677 967481 1065410 991750 886463 720119 980687 962918 882717 1014167 1008782 949527 968757 930286 994006 955757 1108138 1045682 1196666 971417 904031 1090890 1059894 1051392 1051382 1066655 1125818 941427 1024068 1098815 1019019 1137086 1023303 982249 1016742 980726 1000984 940781 997971 1158081 945245 958818 926098 994578 1092864 884631 988237 1198869 1016898 1090201 1035212 924428 1127868 1049237 929157 970095 1126037 
1011715 1076856 1090659 882967 954914 1009810 1112192 1094833 1062654 1088097 941691 963537 888514 1053997 1029242 797909 1048708 1052165 1024497 1152428 1027840 1002873 967625 1095313 1152651 1189334 977646 899204 995646 1098860 1094208 1152554 1070351 1202488 1060573 1168822 1064159 1004373 1136840 1071998 1066034 1068643 991241 1043673 863196 1037778 1103710 954466 995827 954912 1034398 1200076 1055212 1014491 1157179 982992 1092243 1085459 914362 1194619 1096545 925731 971657 1079309 
1176706 1152698 1170070 973194 1031618 1033646 1259356 1206963 1069783 1209888 1071036 1044371 859881 1216561 1123586 832661 1146407 1150874 1118858 1194953 1124121 1140405 1043339 1181818 1238412 1231363 1017003 900394 1142395 1171781 1186273 1191041 1240339 1200525 1109721 1203494 1245305 1112623 1184149 1212104 1151515 1154626 1062274 1210697 975472 1103764 1157457 1084375 1077335 1062525 1172701 1390743 1108649 1127603 1328208 1150559 1286327 1069769 1092144 1287510 1176264 1008745 1116459 1300878 
1014117 1058161 1069064 899026 871467 1048552 1073127 1061396 908220 1096006 940851 1010004 705492 1033740 983459 797749 1025752 1035463 986999 981770 967559 969151 1001691 1043971 1137118 1206835 951121 907717 994351 1040751 1054717 1054179 1004450 1155384 1102912 1165974 1170789 1045979 1097805 979421 1097425 1070654 1045367 1038024 884664 989275 1090498 996291 1024658 976210 1003763 1263136 992715 1084821 1232019 1098270 1186832 1063958 839445 1148373 1065954 1048908 956994 1185671 
899185 965211 905388 749022 798584 985696 980921 971770 908188 932297 856568 901886 708806 923866 954735 794780 932866 899126 938012 937754 904276 879066 953586 946986 1040920 1067960 880419 765563 923087 905559 969246 952300 948737 1072801 1025652 1085948 1015726 843781 982761 836551 944534 978016 979573 923340 760941 994720 984160 827995 879409 934338 904970 1067693 891724 950475 1060483 926072 979794 1021739 888345 1022048 899496 860130 918685 945463 
1083431 1059850 1071481 913145 907179 1102692 1191684 1105164 1017252 1213515 1028387 1062514 769264 1116912 979741 901457 1096112 1119523 939096 1140558 1052373 1038255 1087744 1122419 1129314 1248279 1018430 871661 1068069 1166711 1155346 1103645 1154503 1210430 1108943 1180366 1217997 1077988 1207532 1094255 1171507 1127377 1006732 1032732 946092 1061091 1171712 1021930 1050902 1024541 1106093 1257201 1048881 1076327 1257094 1124459 1177429 1117907 1047645 1282404 1129608 967642 1064131 1181164 
895380 930767 950953 818975 787622 880998 986364 880792 832757 1007597 943295 813152 684581 856795 908272 740921 891055 962591 901857 975632 823126 932272 907389 998579 948401 1007480 883044 760334 1014606 961453 967372 896592 1002801 1085266 875760 1019733 981539 882524 959840 904544 921819 1013230 834703 912842 850191 971213 916293 895658 857150 907194 928739 1015950 857090 911279 1062043 943962 961100 937541 869592 989070 932927 794168 966626 1035924 
1087968 1067987 1149100 968028 980621 1158689 1263654 1242323 1025960 1195427 999093 1072621 853158 1138708 1051451 853504 1097386 1160468 1066440 1202759 1095387 1057869 1085397 1214521 1228925 1288593 1054179 950687 1040537 1161017 1163967 1179124 1195845 1281714 1065847 1238401 1216310 1071193 1186369 1175953 1107417 1216126 1017456 1082278 1003136 1050589 1159194 1008283 1057934 1079933 1099476 1270171 1079804 1198813 1297190 1069222 1229703 1174506 1034393 1258574 1163287 1006440 1065290 1256468 
926534 1041621 1016400 889800 907488 898146 1068349 983705 979389 978177 1014344 927721 785459 961224 991884 752941 897058 1013887 1032114 986305 913471 1064747 875409 1085066 1043697 1062054 923509 876799 1004401 957904 1064326 1063532 1074014 1133994 963925 1157267 1036250 968263 990883 978295 1035659 971840 999151 993095 821647 951592 967389 938367 864315 919363 979963 1154447 922390 1070909 1156775 991935 1069941 961713 894218 1168518 1059253 967998 963997 1123971 
1110047 1224832 1091501 979145 1027345 1131341 1302971 1191970 1107039 1274460 1120801 1134302 976777 1151429 1086805 885176 1165123 1211972 1216950 1197983 1079175 1151494 1111361 1186008 1260754 1298066 1115058 1011551 1234321 1170865 1200436 1239444 1263805 1364783 1170559 1336578 1214627 1175345 1242931 1210899 1212062 1257773 1102606 1214633 1009241 1133171 1251570 1113147 1126125 1128925 1210274 1382494 1086542 1193464 1427731 1191615 1257735 1238220 1163954 1282838 1206590 1060522 1213863 1313042 
979977 1071030 1023636 887511 915830 992777 1065682 1055000 942618 1063612 922728 978680 865664 1042945 952528 730831 1061604 1021566 988675 1025923 1063155 1112424 969647 1139957 1109663 1117371 898294 836865 934052 993500 1048225 1017429 1066658 1186135 1075594 1099575 1106770 1009299 1127843 1019502 1043645 1035983 1009511 1016544 918031 999006 1016789 1007791 1004933 936432 1136858 1219263 1029910 1005293 1164365 1108276 1199022 999128 997604 1063683 989630 911564 1056531 1205699 
1152572 1247296 1248734 1068938 1004507 1204277 1197074 1254411 1123561 1272137 1119460 1147719 862944 1177290 1155367 930775 1140473 1174133 1166513 1274241 1184178 1173197 1152690 1274350 1290009 1373497 1068292 1035140 1154436 1164154 1207939 1202367 1179167 1381439 1256868 1317753 1259142 1125910 1251755 1211936 1207938 1276504 1229536 1146147 1042595 1188579 1263920 1044334 1134790 1193018 1197476 1390962 1150845 1143876 1410783 1212688 1340895 1192742 1201277 1298403 1186143 1065891 1190734 1317574 
1163805 1208952 1227883 991997 1081825 1101245 1253703 1209212 1139849 1032066 1102077 1083006 966110 1180273 1070303 912945 1189648 1133196 1257116 1255201 1147056 1190700 1125698 1253835 1217689 1331930 1093350 1021871 1123981 1144041 1237729 1249472 1174689 1253131 1159217 1316115 1297716 1080140 1236047 1201300 1110794 1172820 1115857 1218194 1044281 1137381 1183584 1097229 1056290 1112831 1167430 1367773 1121733 1162725 1402582 1134810 1249412 1143874 1027565 1245148 1222422 1119639 1098407 1226475 
953640 1064900 987517 891383 844944 1009618 1081265 1066721 899216 1118139 979061 941181 755842 967193 1021261 737279 1025361 954593 1070487 1016232 894247 992879 1000548 1029352 1146785 1130249 951026 809662 1054077 995630 1041326 1061955 1021096 1165373 1032358 1109295 1095980 1044608 1064995 988072 1062522 1089234 905321 1046475 940932 1060539 1072174 961827 1009713 985756 966600 1191147 880321 1034170 1132746 1067394 1040727 1087526 1063079 1128238 1048991 957735 1086722 1136697 
1015555 1085224 1066251 922942 843880 1040421 1085900 1010801 988054 1093758 972161 992360 788551 975362 1039782 853418 1000686 1060586 907408 1023426 1034302 956644 1084452 1021089 1115659 1167916 868117 857268 1078667 1010137 1029065 1077677 1121593 1219706 1055312 1079377 1016226 945122 1166448 923303 1065697 993984 970250 994022 857813 969788 1105813 953484 927534 909891 999218 1188973 998141 1025829 1196116 998606 1127045 1035947 993261 1135357 1005794 936347 933727 1116897 
969106 1015629 946610 928779 853406 920802 974803 972968 976859 1075841 973289 1007101 794737 976508 964819 808236 914649 974736 961288 1039459 977700 1008071 882599 971111 1009279 1046486 862085 849326 1008670 1031039 881811 1008295 967672 1173478 1070906 1105267 1044541 917790 1134936 989288 1055563 1070475 903380 1070676 931594 948665 1074137 920677 921199 918845 1039903 1156535 963754 1038807 1128569 1038827 1142376 1013436 923480 1049252 1093157 922721 952582 1196409 
930706 1010523 994009 791943 818770 911198 941688 960643 851715 1013186 823487 881740 821247 887397 916549 734681 991531 1045551 967342 1046980 937873 948919 862296 1084744 1073888 1183108 849261 811141 962514 1008834 956850 1093670 966620 1148125 964599 1048357 1010215 849679 1107712 999078 985804 1019570 929939 1004426 878403 1047732 1047338 782853 886480 938059 965272 1074796 966729 959559 1091445 907737 1051704 995311 867650 998526 997149 829266 1003810 1047772 
930763 991430 1042662 772946 941291 1008369 1037883 945985 969664 988960 856760 888028 812624 1080269 915523 778058 1049545 1028756 976250 1017197 1021425 1047656 951177 1082191 1146370 1208055 1020229 800995 964524 1035812 1045765 1103030 1036463 1119199 912762 1145593 1059139 992765 1078802 952200 998702 1012218 1102728 1010409 915462 1030323 1094708 957331 927426 943587 1009025 1181391 976783 1044889 1076727 980908 1055883 1071267 903238 1151554 940303 932138 1011394 1130898 
1160034 1214285 1272834 1054188 1008038 1203418 1351585 1250916 1135672 1255560 1159544 1147345 934701 1143044 1323329 983477 1232857 1230328 1201244 1280626 1118562 1270526 1234782 1303608 1374013 1381782 1039902 1025695 1251192 1140504 1294175 1194990 1249378 1408258 1224044 1333687 1334366 1149000 1320757 1191885 1184218 1268078 1148916 1270241 1080413 1214676 1235765 1209220 1148250 1129360 1193545 1468804 1223760 1275605 1305684 1142801 1318512 1359086 1129179 1383937 1354916 1146994 1112134 1263359 
988070 1015182 976924 892048 951212 997422 1074581 1046379 955802 1036017 956286 955842 856966 959183 929607 774861 1063711 1049062 973737 1006034 954747 961965 1032023 1057290 1091771 1138045 930376 899387 933839 1050015 1066435 1069167 1000111 1188412 1022170 1095077 1098423 960936 1114807 1108535 997647 1081115 979498 1072359 881132 1005010 1146854 969049 938993 890374 968637 1097859 977969 1007611 1192286 1016680 1128070 1025449 913770 1052994 1011726 870280 991662 1067914 
977738 1103047 992258 818364 964960 974748 1055215 1014252 980250 1060620 977732 984257 790595 1041137 1002152 764969 963526 1014653 993331 961434 1007003 1013144 924037 1051107 1105343 1120247 969773 828982 1032623 1058722 1002508 1145804 1078044 1191019 982024 1146919 1085411 973434 1055090 954211 1073869 1042249 990347 1038154 908805 1011695 1034936 960872 841855 887525 994630 1188330 999965 1093472 1148633 974072 1172222 990355 862209 1174028 928273 930106 984424 1126510 
996721 980750 1017930 852382 875184 975476 1077223 1017528 954534 964885 929984 872975 796511 943199 896188 844485 1033798 961758 998670 1055737 912576 982857 945981 1048746 1062081 1225961 916576 802352 967319 1023004 1116672 1090345 1023125 1117497 969090 1090733 1042844 937075 1081424 1092512 952738 962751 983283 918886 835514 997483 1081862 836989 862741 893017 955651 1027737 887526 965486 1097548 917271 983090 1046448 867645 1073773 1064000 864656 958192 974305 
1119336 1101251 1114076 865519 985154 1077224 1231493 1104019 1007418 1216623 1007319 1058358 875464 998310 997518 808456 1183480 1082324 1121037 1152761 1050835 1123051 1086312 1270101 1150986 1305861 1063764 1002006 1090696 1139549 1224891 1122625 1139023 1229911 1155909 1289348 1270628 1091465 1172973 1188288 1115453 1158433 1101380 1082573 943917 1140359 1152669 1035540 1091393 1079105 1152051 1293204 1071064 1117696 1270423 1102546 1225096 1210367 1012134 1209961 1210303 1033772 1041140 1252741 
915930 1056134 1023490 792970 844242 944363 1067192 868433 900199 1002158 936036 930814 711814 934669 888217 675371 987618 894830 1001053 977612 938297 1048585 888440 1045069 1056332 1039764 916930 849174 947301 884032 966093 1059194 1003678 1164316 985340 1097537 1023555 943524 1024718 935796 1038977 939255 945542 999920 887687 992424 979685 983862 969270 881472 999096 1173227 964383 1036607 1069362 995592 1090772 929057 986952 1069741 962452 936231 935189 1139977 
975016 1090944 1105280 868340 866733 1069910 1171857 1030069 966021 1084037 1050928 971224 753119 1102729 1019863 886711 1026102 1025039 953153 1053532 1039038 1030738 1063135 1063534 1157923 1110162 888252 795666 1107606 1003659 1076059 1017017 1077338 1215319 1030269 1105524 1054597 952442 1093319 1021093 1001764 1002004 980239 982246 963700 1072804 1110181 992224 995280 927155 988622 1168392 1008654 1051484 1249214 1041489 1052661 1003627 1017487 1164132 955124 870174 951311 1060670 
1104786 1121931 1133323 955396 992084 953271 1104680 1118867 1007048 1213370 976174 967171 878427 1132820 1200342 862164 1029358 1126034 1072224 1131097 1075665 1098963 1025942 1182419 1197676 1229323 994461 895751 1144560 1177910 1079918 1112853 1202893 1221496 1133338 1260466 1124543 1072597 1111065 1008182 1070754 1140988 1112239 1126813 976290 1114968 1108642 990034 1064734 1032504 1046673 1365881 1040652 1183843 1254663 1059650 1175016 1020811 1031132 1228109 1085308 975246 1059925 1223198 
934642 1023483 1029536 841360 884252 870549 922943 999802 964199 1003998 893087 901877 773266 1007028 830392 674804 933022 969888 1005076 976112 965635 875465 861609 1048059 1017437 1176022 880014 820043 932489 1000176 968230 1074151 971661 1089767 997793 1145733 1014948 908207 1050139 1020267 1012881 985898 998800 922561 803571 1015607 1063293 827477 898464 944335 916900 1108386 1031914 977051 1129106 961302 1059896 903176 972724 1045193 947153 785627 989107 1060494 
1117586 1164946 1216388 989559 1105556 1102526 1180953 1175631 1037775 1165426 1017607 1065197 870349 1161527 1151197 905627 1186899 1152675 1098311 1272232 1171112 1215819 1109009 1246428 1204451 1310387 1093160 943676 1115568 1213151 1126374 1146440 1233193 1249359 1150214 1254167 1173218 1151205 1174266 1077618 1132928 1157299 1123915 1122395 997992 1096099 1124248 1041043 1055482 1064713 1117352 1338069 1106748 1055249 1205982 1123716 1290237 1160300 1051991 1308077 1193782 1089397 1120479 1230366 
1047566 1008995 1085151 874562 980668 1014523 1080671 987590 1070341 1017112 994359 917226 917135 965145 914729 867213 1063916 1003256 1041864 1075733 996391 989891 1006069 1173698 1072973 1225958 934711 904972 1050166 1068363 1098516 1110883 1108944 1126244 1082904 1151740 1141623 988743 1146927 1114674 1046028 1047453 1010630 1032873 913249 1047988 1143004 923728 960563 944543 1074513 1154072 946095 994478 1208154 990860 1112037 1088771 1005503 1064279 1090195 907241 991903 1076083 
1012812 997104 1072086 898073 978579 1018926 1088193 1042780 967340 1138530 915077 1011715 760265 982462 995423 840621 1008671 978996 936387 1110541 1021581 1097460 1070876 1055341 1161453 1195859 1050932 867525 1016631 1037463 1081451 1120294 1184356 1154303 1060075 1146651 1134936 1028403 1074887 942510 1073954 1096092 1022116 997859 872493 969056 1042984 1024721 931923 989186 1068739 1249345 1009442 1052532 1171471 963318 1223491 1061799 933693 1228701 1034077 979576 975644 1184980 
1100252 1193346 1196496 990508 1033728 1126762 1272788 1181733 990596 1177679 1048408 1049179 848362 1057618 1056851 832552 1137225 1205545 1112805 1280970 1119141 1116918 1126976 1188381 1232059 1326285 1039290 1008284 1158704 1160300 1242244 1178253 1194986 1299091 1182090 1270210 1223159 1111806 1115917 1178325 1120096 1119168 1124584 1129547 925453 1077737 1128053 1072923 1044962 1107533 1120286 1416249 1118044 1136196 1288825 1094973 1263307 1170809 930567 1312985 1176731 1060001 1170888 1188805 
950573 1031156 1088675 882043 923482 1018883 1087922 1162459 1064600 1112717 962950 1067436 842969 1091966 1048176 918236 1017667 1101839 1064158 1120622 994253 1026335 1002707 1058650 1178575 1218357 922958 888599 1030440 1041914 1062314 1007926 1055250 1197143 1043470 1162699 1195604 1044302 1218314 1085449 1071656 1137222 997551 1154815 970743 1004792 1256443 1021276 947241 957031 973508 1276220 1031176 1025442 1187402 1085992 1141080 1080051 1094334 1133089 1129652 994654 920972 1167643 
1045073 1138338 1044923 874207 959994 1090744 1143708 1128657 1005717 1098653 1029306 1129180 829158 1043197 1086903 848322 1074183 1064608 1038721 1034863 1037202 1116960 1035785 1101104 1165661 1162807 951105 861631 1043303 1080620 1083239 1174505 1059906 1248164 1155796 1187815 1176625 1059670 1147355 1097389 1111088 1132506 1074472 1041068 910366 1066012 1116873 999443 917245 997902 1093521 1198014 1059269 1109995 1261977 1033167 1211642 1081488 1052371 1160500 1119011 977364 1023910 1169487 
945850 966347 952780 914526 852665 980855 1037402 1101423 965670 1049474 950135 894265 734957 967000 977211 868626 907116 1018927 939303 975090 897737 850204 1041696 950670 1022966 1113959 940687 887669 1050636 1024283 981566 1025986 954734 1125463 971236 1068294 1123831 926070 1123404 1012806 1035080 1047618 907922 1004189 821452 854871 1112040 962436 921262 952180 904448 1106234 937068 971109 1231771 972805 1054084 983295 1003808 1054326 1034759 889012 981161 1094636 
1114147 1050664 1037868 993554 897052 1013167 1098803 1015646 1043996 1097302 1056156 1039973 812019 991892 1074339 755689 1035263 1046587 980477 1063046 985386 1030141 983521 1174916 1126058 1187454 947347 943627 1098765 1112584 1099316 1023118 1170153 1179508 1157195 1196288 1099056 1013954 1093802 1061036 1123041 1139464 995443 1063390 901030 1077036 1125442 915524 1041453 1048675 1110228 1244301 1012684 1071731 1273387 1085133 1187563 1116528 1113593 1166419 1132744 918383 1011014 1180366 
1026801 1057184 1113034 1032849 944774 1038703 1112377 1025818 975698 1118991 970389 979168 870146 1017654 1045015 896164 1008821 1053529 1020556 1098887 1019257 1099476 1075966 1190406 1237029 1270568 1038947 881813 1053453 1077035 1076269 1168796 1145766 1231398 1045835 1175175 1066699 996113 1128833 999188 1108845 1081816 1024601 990178 893370 1091482 1090216 972457 1032495 1056080 1055831 1233884 1009550 1136351 1206055 994155 1078963 1114940 1027173 1124455 1076492 955327 1046526 1140771 
1149233 1253483 1219547 998379 1017928 1212475 1257889 1222293 1079048 1243668 1164330 1065124 908638 1184832 1059988 904458 1192852 1233309 1141989 1182121 1112340 1105618 1135900 1226524 1257094 1390992 1052310 1009666 1235913 1286019 1255734 1227075 1174533 1343196 1214850 1307842 1276890 1196279 1345475 1289305 1231072 1256038 1176231 1178790 993757 1107705 1347266 1102492 1190008 1132709 1196419 1327252 1107635 1129063 1323532 1180531 1288811 1248401 1147092 1334779 1247617 1087980 1204307 1357535 
1091392 1125905 1105963 925881 1023827 1127935 1236841 1160372 1063010 1149967 1041656 1051980 903489 1125088 1122851 862032 1183272 1104674 1165667 1175132 1122857 1256238 1089093 1230545 1236668 1257434 1051340 870696 1041933 1100890 1192657 1200797 1153817 1254484 1103038 1162926 1153995 1025810 1139962 1130288 1158787 1069010 1152142 1138244 920861 1094956 1184684 1076184 1079332 1033812 1211529 1298160 1150557 1098873 1262833 1101018 1239356 1111664 1167992 1235542 1088011 971030 1123029 1207650 
1077461 1166834 1186915 898359 1059444 1089609 1187101 1101492 1054940 1140046 963934 1061679 932666 1088674 1027836 810230 1057338 1173469 1104451 1133498 1148101 1051620 1042755 1146356 1232897 1300407 1009953 934764 1080526 1110220 1132378 1188850 1184003 1269792 1057425 1311231 1128821 1059815 1219461 1121161 1081204 1145172 1174079 1209696 967625 1156192 1119932 1037751 1039210 1063447 1111004 1336057 1068622 1202003 1195826 1039609 1215302 1129901 1024799 1144308 1139115 1065083 1047387 1282500 
987188 1001340 1003171 931007 895471 972871 1125209 1013629 958201 1060653 928922 959482 879501 950750 926377 698021 1045253 984013 968843 1023294 958413 1067641 887266 1177209 1124152 1156966 970712 961786 1004359 1033577 1008324 1047636 1081912 1293567 1051996 1115978 1048982 985291 1108125 1048671 1055489 996665 960922 1045372 886134 1047742 1057714 984698 990830 943136 1062846 1219413 945864 1079539 1091170 1048832 1184064 1088294 896713 1105232 1019792 946278 984242 1162608 
968837 999085 966993 828590 923764 890844 1023827 972984 877417 1063732 784204 932991 760195 933647 1025300 801212 1011068 1002036 932216 1007137 990611 1026511 892091 1029762 1132216 1124635 916535 852864 943650 993596 1043812 974614 998421 1104855 1015246 1019972 1077739 937589 1083987 941871 993863 963354 1010957 1106247 872985 1026240 1015275 942083 957596 912962 1026730 1268957 894771 992770 1110649 940100 1053271 926370 898413 1043826 1020677 897317 937090 1038979 
1001764 972597 1000936 847528 915096 989931 1036448 1015651 933891 1033641 950918 908730 758357 933757 998572 829476 1031910 1017425 959892 1062752 979428 956699 932750 1037392 1153237 1116853 891537 979936 1003563 992383 1023771 930579 1040863 1138243 1078909 1053293 1115484 913062 1068023 1013205 1016945 1070410 993798 1118559 910790 967158 1122410 897728 1020302 890954 1001643 1171898 935933 948043 1191593 1073928 1164005 1059432 940164 1050917 1074867 914126 913026 1138405 
905443 937115 912919 770928 801527 965308 1024301 933585 849543 968937 858954 915174 753517 902782 831269 741226 1010082 964968 927003 985875 931979 984763 880150 1009296 1054231 1113647 863076 769178 914445 933136 981322 988516 936576 1078002 965892 1033185 1091772 896274 1013491 990796 1005267 982576 951273 950440 815523 933233 1021104 844796 910920 894868 1033294 1107382 983656 937016 1063933 917333 1062622 1009163 925914 1001770 1001694 806867 1042772 1056053 
907114 949302 1004126 823994 754105 958467 989378 930571 875707 964044 861935 898735 737559 925217 849569 769954 890629 986836 917039 920245 920337 857036 913459 995096 1095103 1096774 813698 727311 951462 976296 980547 989209 983617 1046937 973308 1028918 1051980 926320 1123390 947119 1015304 944626 943200 964932 793371 870713 1068665 836230 920286 916404 944224 1074781 943791 959776 1080189 928238 997300 1030992 926262 1044338 1007855 933783 916165 1095777 
973927 1043915 1061949 784577 837276 963601 1061830 1008909 960866 1065867 939275 1008565 727155 1032686 954610 772424 989674 966506 923878 1001161 1021610 974280 983593 978479 1110886 1096482 940729 755993 981030 963330 981373 1065870 1048844 1192597 1027513 1136530 1113780 1028722 1035686 992068 992396 999310 966583 1028860 970265 1049518 1076301 995206 937300 835976 969776 1197782 958832 1141826 1144548 1020115 1116379 905295 1017768 1076556 943151 914590 920712 1143418 
1027737 1093451 1071117 796025 861187 1014342 1135203 1062521 901573 1073217 1010050 918838 804907 1033308 1047184 805245 1054641 1055021 967001 1032111 954084 967601 947695 1031940 1122826 1133960 914629 809582 1137920 1067546 1129532 1019662 1036352 1138444 1069713 1157053 1153402 952442 1123872 1074737 1000570 1056873 983147 1037560 856927 1041574 1076326 997155 955758 954704 1057426 1179716 1099120 1004412 1152694 991294 1106976 1024267 980776 1177456 1046821 847990 993226 1094982 
945348 974435 928523 774028 847990 875209 938916 975496 798732 957613 827054 785668 781270 891802 902056 699101 901209 944560 801809 932021 899923 931641 903371 953994 1029814 1093162 866230 770312 960443 952971 939296 961984 975564 1073879 965630 991731 967563 883812 1042646 913631 889795 890268 944272 909800 765614 931094 958513 842250 864537 821375 932650 1083040 903771 852454 1090250 959372 1042288 873391 855937 991123 928402 827420 868911 966439 
1031597 1092295 1080375 861330 889371 1028926 1098815 1098768 1005471 1077691 1005847 879460 780493 1110321 1022932 880314 1031897 1039755 971174 1088571 980892 971125 1048144 1056353 1128583 1188390 973472 897796 1045518 1105559 1055302 1143055 1017870 1181983 1084282 1180181 1138237 1041527 1108746 1044301 1059035 1101031 1006265 1013430 909416 1005843 1122536 968204 993586 905955 971525 1180415 934871 1094438 1184548 1017594 1098879 1091797 999804 1209265 1065214 961356 998305 1103008 
917920 1061779 1011587 905985 922977 998948 1095200 1104944 967829 1128299 954643 978761 828723 1063633 1039950 759081 964110 1060346 1000185 1031335 991889 1017264 1029930 1042942 1066211 1140599 977796 798910 1020815 1096214 1080923 1012679 1086336 1194657 1012335 1284329 1045415 983716 1073681 991849 979271 1067338 1041507 995413 817910 1017677 1020356 982418 923956 1028359 957260 1117567 1061684 1073451 1135532 1014989 1097431 1107125 890162 1169479 1048447 921865 986104 1115852 
1221737 1288553 1314817 1061300 1154352 1273653 1313533 1380961 1202048 1317402 1167099 1196310 1003780 1237045 1211260 983206 1283641 1308874 1228747 1255601 1268304 1222652 1266491 1311452 1360469 1440864 1211861 987424 1202357 1276819 1293228 1305145 1323423 1478190 1268851 1445127 1398498 1206052 1353205 1283710 1289164 1296226 1312837 1237054 1070759 1236435 1346087 1166422 1141619 1172251 1209241 1433748 1299106 1241357 1407086 1227955 1442218 1258076 1198854 1419415 1308779 1106583 1259266 1350288 
915543 1084034 1078173 831130 849925 934915 1031368 1007941 924477 1067952 956178 955290 745490 1001298 966712 795348 991934 1089950 1037713 1023176 938504 1002749 958391 1030991 1009236 1112755 949303 739832 1056803 1028536 1061279 1031981 984616 1148045 979684 1122054 1062208 963059 1143479 1026405 1004175 1039413 900911 1028604 855803 1041658 1025333 1005654 893509 992996 1016505 1068455 989122 910808 1123026 1087577 1025469 1024331 887989 1084279 1005140 902972 922134 1127606 
1018495 1095299 1069190 923000 915380 1004344 1076399 1085081 1019845 1103847 980621 983718 786064 1077554 1027366 857910 1015639 1096981 1014367 1013517 1013207 989587 1003225 1112560 1091937 1204418 1037725 854052 1056321 1143406 1027412 1063239 1033236 1262517 1032374 1204420 1089592 970773 1178010 1025124 1047882 1108161 1008282 1013433 927664 1107350 1125590 936803 962156 990486 956888 1138870 1050814 1071737 1109029 1045660 1103491 1123374 989515 1177726 1072928 904585 1005654 1113503 
1034185 1110052 1054732 935952 965727 1003281 1052202 1096461 959817 999044 948066 910292 918131 1047320 1100182 821330 1035180 1070267 1024190 1107718 1046477 1106250 1042157 1122458 1175709 1229874 979647 875910 1029827 1061202 1087041 1147522 1101566 1208840 1056980 1103102 1060994 940762 1160539 974364 1043544 998728 1069308 1041113 860527 978503 1075578 951374 952914 979213 1058184 1239341 1046850 959372 1192821 1029552 1116322 985315 1002793 1155319 1058251 899321 1023372 1086676 
1059840 1119962 1083982 876000 905618 1055759 1095538 1110385 980695 1092704 1070957 973955 786721 1063324 1016226 861383 1059703 1027779 1013957 1053758 983015 1033430 1017313 1111063 1145858 1235760 989545 958393 1118580 1065215 1116496 1038762 1143280 1152507 1139419 1203090 1284091 1092256 1131554 1056572 1068054 1069967 1074545 1091394 899644 1027667 1145969 990391 1055055 1027892 1085072 1251452 998149 1027238 1301739 1062457 1162266 1146447 957013 1215534 1121435 1025621 1032406 1169657 
969955 1104470 1154133 972248 901026 1082024 1188183 1130264 1015581 1165111 1012625 992787 868694 1071925 1072920 918808 1072221 1042221 1067023 1194418 1010041 1084631 1117657 1080442 1179701 1179815 960489 891566 1151787 1104808 1118957 1135165 1133056 1273560 1155520 1189897 1125896 1075056 1212400 1072694 1077205 1126970 1017004 1097101 913680 1048756 1149417 1120119 1049362 1030215 1073094 1307710 1020922 1080073 1255363 1136965 1187331 1073522 1048975 1197674 1077366 1023182 1065231 1246303 
989378 1061770 1084411 858518 862910 952746 1093204 1039626 862919 1106563 944208 979239 787091 937511 982311 745547 1058529 1074602 1050631 1066394 942741 1055450 916639 1100792 1188905 1225866 977813 873363 1070086 999882 1135638 1098368 1042751 1201554 1038498 1131793 1144903 998691 1132744 1046904 1062127 1027797 1006122 1123333 909523 1070707 1100216 1003489 1008853 1011454 1035434 1253092 982546 1097434 1139516 1062716 1098577 1068244 899341 1170023 1108632 997149 1031962 1198699 
903568 1061678 929288 719567 745865 912875 928898 945264 905499 918447 921789 924723 678660 1053629 935886 797170 904526 873623 847994 985169 966492 922494 908372 969615 995363 1042621 820573 759339 966327 953081 862297 980434 961200 1109194 1006799 1014092 1025251 908147 1019659 906211 878036 933105 930197 894352 803995 982639 964358 868839 852516 887026 897801 1039617 951172 854904 1039104 929638 1017057 890248 928816 1051536 848364 741429 867445 964027 
1058485 1113947 1166500 955340 918433 1083547 1145731 1126929 1084503 1192314 1018024 1057887 790880 1231986 1072588 883521 1024236 1081860 1098046 1079964 1068193 1141154 1071231 1189786 1190428 1247456 1049815 869814 1062839 1204690 1070076 1236351 1049869 1256866 1087487 1247458 1217568 1095648 1209701 1117060 1164523 1157613 1101840 1063897 1012281 1005497 1258130 1052755 1043371 1036886 1068596 1322374 1125667 1206289 1204568 1079548 1261837 1112585 1053167 1312608 1114784 1058439 1028030 1330725 
1014216 999749 1046867 867020 906566 974373 1060701 1028890 936249 1012376 917778 892880 818571 991401 928558 791753 982008 901731 975783 983141 988199 1028710 1006683 1030283 1109409 1114236 933266 840305 934539 964760 951969 1086173 1075294 1152443 952877 1084935 1043329 904435 1037740 987297 949745 928314 1037375 967709 808481 1035390 1025432 953359 949954 951281 973886 1112347 982676 990410 1119281 957549 1105764 951025 872940 1000626 941495 919799 918512 1092654 
1016820 969741 1118362 900106 909263 983776 1032641 1052494 1026454 1030376 971206 961452 829821 1046436 996310 859132 1031200 997348 962745 1053385 1009859 1058686 968175 1170395 1112931 1195334 910443 827925 978807 1072732 1067978 1151164 1065098 1133185 1010698 1110451 1138237 958816 1094354 1068699 1007033 1059058 1030437 975899 907487 1039962 1138270 940849 931644 952705 1020273 1143939 1064634 1043270 1185387 918749 1155373 986456 946238 1151719 1048353 829648 958453 1075249 
1005123 1075624 1056725 886501 930871 957805 947891 1068358 1030190 1078650 889600 1042276 884013 1049449 1068112 910677 974963 1053758 939819 1003982 999967 995123 932423 1040947 1101555 1176272 952523 825766 981424 1069508 979284 1045235 1043927 1191824 1094123 1158477 1079962 1010188 1184086 1002741 961094 1161482 1027608 1017594 995125 1029391 1112738 836232 852416 980712 999332 1148854 919167 980152 1129698 938013 1091308 1113310 899596 1090896 1060987 868650 941382 1013600 
980971 1025755 1087789 841668 920158 1034988 1065259 1016222 938062 1018337 879667 980250 758219 961381 985265 863072 1037491 1060847 1029725 1053814 1025699 926578 991906 1024795 1134465 1107879 948312 897894 929497 1020420 1021169 1003339 1079952 1175079 1084624 1153282 1066485 895854 1039105 1010079 979830 1094544 1058900 1050107 835437 1048916 1016731 913084 941299 1013918 965221 1141545 1009552 954496 1115542 1015690 1133927 970947 927369 1088396 973810 908198 938672 1083864 
